{"dataset_name": "SelfRegulationSCP1",
"num_samples":16,
"freq_domain_size": 32,
"recon_cwtm":40,
"d_model":[128,112],
"num_heads":[3,4,6],
"dropout_rate":0.1,
"dff":1024,
"recon_dff":512,
"num_tsa":[3,4],
"size_T":[56],
"size_F":[4],
"mask_ratio":[0.05],
"top_ratio":[0.1],
"batch_size":[16,8],
"patience":3
}

