{"dataset_name": "ERing",
"num_samples":10,
"freq_domain_size": 64,
"recon_cwtm":40,
"d_model":[16],
"num_heads":[8],
"dropout_rate":0.2,
"dff":512,
"recon_dff":256,
"num_tsa":[3],
"size_T":[5],
"size_F":[4],
"mask_ratio":[0.1],
"top_ratio":[0.1],
"batch_size":[5],
"patience":3
}

