{"dataset_name": "HandMovementDirection",
"num_samples":10,
"freq_domain_size": 32,
"recon_cwtm":40,
"d_model":[20],
"num_heads":[4],
"dropout_rate":0.1,
"dff":512,
"recon_dff":256,
"num_tsa":[3],
"size_T":[25],
"size_F":[4],
"mask_ratio":[0.1],
"top_ratio":[0.1],
"batch_size":[16],
"patience":3
}

