{"dataset_name": "NATOPS",
"num_samples":10,
"freq_domain_size": 32,
"recon_cwtm":40,
"d_model":[20],
"num_heads":[10],
"dropout_rate":0.1,
"dff":1024,
"recon_dff":512,
"num_tsa":[3],
"size_T":[7],
"size_F":[4],
"mask_ratio":[0.1],
"top_ratio":[0.1],
"batch_size":[16],
"patience":5
}

