,index,dataset,acc,std,T_acc,T_std
0,0,ArticularyWordRecognition,0.364814813559254,0.2431832410321517,0.5055555490156015,0.3154107617092695
1,1,ArticularyWordRecognition,0.26494575043519336,0.3060557712205215,0.3244444392621517,0.3600034189671532
2,2,ArticularyWordRecognition,0.2500000024835269,0.2446267573014329,0.30888888736565906,0.3143168162893112
3,3,ArticularyWordRecognition,0.20299823954701424,0.21007421078966065,0.28111110751827556,0.3386283109201074
4,4,ArticularyWordRecognition,0.5102880597114563,0.169063196034104,0.7600000103314718,0.072008216493089
5,5,ArticularyWordRecognition,0.590503325064977,0.3068546783716079,0.6044444379707178,0.39676780100848336
6,0,SelfRegulationSCP1,0.7662393053372701,0.09927599998656775,0.6723549564679464,0.007372868083339533
7,1,SelfRegulationSCP1,0.7786324818929037,0.02532568549640821,0.6723549365997314,0.004826657091467584
8,2,SelfRegulationSCP1,0.781766394774119,0.07125469044718959,0.6871444781621298,0.0337099539572435
9,3,SelfRegulationSCP1,0.7982905904452006,0.02842443555135042,0.6837315162022909,0.024025861314345795
10,4,SelfRegulationSCP1,0.7743589679400126,0.034591644497537384,0.6814562082290649,0.0407973042807787
11,5,SelfRegulationSCP1,0.7675213615099589,0.04413104961546887,0.6666666467984518,0.020915570258824213
12,6,SelfRegulationSCP1,0.7123931646347046,0.08546795030264272,0.6234357158342997,0.08888292847694425
13,7,SelfRegulationSCP1,0.8273504177729288,0.027000960975686567,0.6860068043073019,0.03480559329781011
14,8,SelfRegulationSCP1,0.8094016909599304,0.021486845026936353,0.6928327480951945,0.029093763366862247
15,9,SelfRegulationSCP1,0.7623931765556335,0.10395073428617797,0.6496018171310425,0.01608888506945762
16,10,SelfRegulationSCP1,0.7128205100695292,0.06164518884169093,0.6666666865348816,0.050648068370632154
17,11,SelfRegulationSCP1,0.7914529840151469,0.011530556020408447,0.6996586918830872,0.02009502315906302
18,12,SelfRegulationSCP1,0.7072649399439493,0.10870672718527832,0.6621160308519999,0.032137540479732066
19,13,SelfRegulationSCP1,0.8418803413709005,0.023344429716932374,0.6689419746398926,0.01827347706673562
20,14,SelfRegulationSCP1,0.699999988079071,0.09325251886555132,0.6143344640731812,0.07482632723564059
21,15,SelfRegulationSCP1,0.8376068274180094,0.01829140618094049,0.6791808803876241,0.02280994501599761
22,0,SelfRegulationSCP2,0.5055555601914724,0.023895360974942357,0.5,0.0
23,1,SelfRegulationSCP2,0.7230555415153503,0.11614233079858269,0.5018518567085266,0.018332403962541023
24,2,SelfRegulationSCP2,0.6628571351369222,0.09684672901256697,0.4981481432914734,0.015930225252406872
25,3,SelfRegulationSCP2,0.6066666742165884,0.130156614854226,0.4981481631596883,0.014581506548556783
26,4,SelfRegulationSCP2,0.5052549242973328,0.03149566620230741,0.49629629651705426,0.005237827696590363
27,5,SelfRegulationSCP2,0.4951082170009613,0.02705256330015338,0.5037037134170532,0.0026189208727699334
28,0,NATOPS,0.5864197512467703,0.08211499796816867,0.6518518527348837,0.1414456065070092
29,1,NATOPS,0.5139329781134924,0.2423920853719716,0.531481479605039,0.263184568417031
30,2,NATOPS,0.5888888935248057,0.06815887897305349,0.7166666785875956,0.058969211778777994
31,3,NATOPS,0.5444444517294565,0.05902732037247224,0.5796296199162801,0.1579402635919692
32,4,NATOPS,0.43518518408139545,0.015930237955391398,0.4722222089767456,0.018144367383571943
33,5,NATOPS,0.5839506189028422,0.06273258885944731,0.6981481512387594,0.07205584439679232
34,6,NATOPS,0.4148148198922475,0.1897463025426005,0.47962963084379834,0.2296146961910409
35,7,NATOPS,0.5197530885537466,0.18039059740159555,0.6240740617116293,0.2024710126849856
36,8,NATOPS,0.5543210009733835,0.07985660027881643,0.7018518646558126,0.07374928482083921
37,9,NATOPS,0.5999999940395355,0.09733531734001412,0.6111111243565878,0.18564758509012144
38,10,NATOPS,0.4790123601754506,0.09058734135076066,0.5796296199162801,0.07965114935836265
39,11,NATOPS,0.34691357612609863,0.04601975600136368,0.3759259283542633,0.08490290197867859
40,0,SelfRegulationSCP2,0.5055555601914724,0.023895360974942357,0.5,0.0
41,1,SelfRegulationSCP2,0.7230555415153503,0.11614233079858269,0.5018518567085266,0.018332403962541023
42,2,SelfRegulationSCP2,0.6628571351369222,0.09684672901256697,0.4981481432914734,0.015930225252406872
43,3,SelfRegulationSCP2,0.6066666742165884,0.130156614854226,0.4981481631596883,0.014581506548556783
44,4,SelfRegulationSCP2,0.5052549242973328,0.03149566620230741,0.49629629651705426,0.005237827696590363
45,5,SelfRegulationSCP2,0.4951082170009613,0.02705256330015338,0.5037037134170532,0.0026189208727699334
46,0,RacketSports,0.5887037068605423,0.2473232632862172,0.5328947454690933,0.21567177421790784
47,1,RacketSports,0.8844444553057352,0.0474536916896473,0.7587719360987345,0.029584949866417944
48,2,RacketSports,0.8281481266021729,0.04078785330384254,0.7456140319506327,0.0437498520592567
49,3,RacketSports,0.8814814686775208,0.024701227307902168,0.7105263074239095,0.023414656454518817
50,4,RacketSports,0.8903703689575195,0.014665935211996127,0.7565789421399435,0.005371691874568305
51,5,RacketSports,0.6392592589060465,0.17965978227752427,0.5942982534567515,0.11919015808132569
52,6,RacketSports,0.7940740784009298,0.07492839657139676,0.6885964870452881,0.07293111026967328
53,7,RacketSports,0.7792592644691467,0.07969763412026162,0.686403493086497,0.06475799375351371
54,8,RacketSports,0.8088888724644979,0.026168186883607617,0.7324561476707458,0.0031013337008256262
55,9,RacketSports,0.6992592612902323,0.17704787933912997,0.5877192914485931,0.17931570562662125
56,10,RacketSports,0.7651851773262024,0.18754934789221742,0.6688596407572428,0.1289578111097023
57,11,RacketSports,0.7525926033655802,0.08920930252494513,0.6447368264198303,0.08940270624085982
